{
  "_id": {
    "$oid": "5f3474b46973d1136037dd9f"
  },
  "subject": "Criador",
  "inputs": [
    "Quem te criou",
    "Quem e o desenvolverdor",
    "desenvolvedor"
  ],
  "key": "desenvolvedor",
  "output": [
    "Renan ! renan-soares@live.com"
  ],
  "summary": "Desenvolvedor",
  "date": {
    "$date": "2020-08-12T23:01:08.275Z"
  },
  "bot_function": "",
  "insertedby": "",
  "calls": 0,
  "__v": 0
}